…
4.3 Checking for rows with no data tracked

```R
daily_sleep %>% filter(TotalTimeInBed ==0)
# A tibble: 0 × 5
# ℹ 5 variables: Id <dbl>, Date <chr>,
#   TotalSleepRecords <dbl>, TotalMinutesAsleep <dbl>,
#   TotalTimeInBed <dbl>
```

```R
daily_activity %>% filter(TotalSteps ==0)
# A tibble: 77 × 15
           Id Date  TotalSteps TotalDistance TrackerDistance
        <dbl> <chr>      <dbl>         <dbl>           <dbl>
 1 1503960366 5/12…          0             0               0
 2 1844505072 4/24…          0             0               0
 3 1844505072 4/25…          0             0               0
 4 1844505072 4/26…          0             0               0
 5 1844505072 5/2/…          0             0               0
 6 1844505072 5/7/…          0             0               0
 7 1844505072 5/8/…          0             0               0
 8 1844505072 5/9/…          0             0               0
 9 1844505072 5/10…          0             0               0
10 1844505072 5/11…          0             0               0
# ℹ 67 more rows
# ℹ 10 more variables: LoggedActivitiesDistance <dbl>,
#   VeryActiveDistance <dbl>,
#   ModeratelyActiveDistance <dbl>,
#   LightActiveDistance <dbl>,
#   SedentaryActiveDistance <dbl>, VeryActiveMinutes <dbl>,
#   FairlyActiveMinutes <dbl>, …
# ℹ Use `print(n = ...)` to see more rows
```
…
